{
    "KPlugin": {
        "Icon": "folder-new",
        "MimeTypes": [
            "application/octet-stream"
        ],
        "Name": "Move to New Folder",
        "Name[ar]": "انقل إلى مجلد جديد",
        "Name[be]": "Перамясціць у новы каталог",
        "Name[bg]": "Преместване в нова папка",
        "Name[ca@valencia]": "Mou cap a una carpeta nova",
        "Name[ca]": "Mou a una carpeta nova",
        "Name[cs]": "Přesunout do nové složky",
        "Name[en_GB]": "Move to New Folder",
        "Name[eo]": "Movi al Nova Dosierujo",
        "Name[es]": "Mover a una nueva carpeta",
        "Name[fr]": "Déplacer vers le nouveau dossier",
        "Name[he]": "העברה לתיקייה חדשה",
        "Name[ia]": "Move a nove dossier",
        "Name[it]": "Sposta in una nuova cartella",
        "Name[ka]": "გადატანა ახალ საქაღალდეში",
        "Name[lt]": "Perkelti į naują aplanką",
        "Name[nl]": "Naar nieuwe map verplaatsen",
        "Name[pl]": "Przenieś do nowego katalogu",
        "Name[pt_BR]": "Mover para pasta",
        "Name[ro]": "Mută în dosar nou",
        "Name[ru]": "Переместить в новую папку",
        "Name[sl]": "Premakni v novo mapo",
        "Name[sv]": "Flytta till ny katalog",
        "Name[ta]": "புதிய அடைவிற்கு நகர்த்து",
        "Name[tr]": "Yeni Klasöre Taşı",
        "Name[uk]": "Пересунути до нової теки",
        "Name[x-test]": "xxMove to New Folderxx",
        "Name[zh_CN]": "移动到新建文件夹",
        "Name[zh_TW]": "移動到新資料夾",
        "ServiceTypes": [
            "KFileItemAction/Plugin"
        ]
    },
    "X-KDE-Require": "Write",
    "X-KDE-Show-In-Submenu": "true"
}
